{
	"player":{
		"color":"BALL_BLUE"
	},
	"road":[
		{
			"time":1.6,
			"offset":"RANDOM",

			"colors":[
				"PLAYER_COLOR"
			],
			"autoMove":true,
			"amount":1,
			"velocity":200,
			"isGuide": true
		},
		{
			"time":2.23,
			"offset":[
				-0.65,
				0,
				0.65
			],

			"colors":[
				"BALL_YELLOW",
				"PLAYER_COLOR",
				"BALL_PURPLE"
			],
			"amount":3,
			"isGuide": true
		},
		{
			"time":2.90,
			"offset":[
				-0.65,
				0,
				0.65
			],

			"colors":[
				"BALL_YELLOW",
				"PLAYER_COLOR",
				"BALL_PURPLE"
			],
			"amount":3,
			"isGuide": true
		},
		{
			"time":3.5,
			"offset":"RANDOM",

			"colors":[
				"PLAYER_COLOR"
			],
			"autoMove":true,
			"amount":1,
			"velocity":300,
			"isGuide": true
		},
		{
			"time":4.2,
			"offset": "DEFAULT",

			"colors":[
				"BALL_YELLOW",
				"BALL_PURPLE",
				"PLAYER_COLOR"
			],
			"amount":3,
			"isGuide": true
		},
		{
			"time":4.9,
			"offset": "DEFAULT",

			"colors":[
				"BALL_YELLOW",
				"BALL_PURPLE",
				"PLAYER_COLOR"
			],
			"amount":3,
			"isGuide": true
		},
		{
			"time":5.56,
			"offset":"RANDOM",

			"colors":[
				"PLAYER_COLOR"
			],
			"autoMove":true,
			"amount":1,
			"velocity":200,
			"isGuide": true
		},
		{
			"time":6.25,
			"offset": "DEFAULT",

			"colors":[
				"BALL_YELLOW",
				"BALL_PURPLE",
				"PLAYER_COLOR"
			],
			"amount":3,
			"isGuide": true
		},
		{
			"time":6.9,
			"offset": "DEFAULT",

			"colors":[
				"BALL_YELLOW",
				"BALL_PURPLE",
				"PLAYER_COLOR"
			],
			"amount":3,
			"isGuide": true
		},
		{
			"time":7.5,
			"offset": "DEFAULT",

			"colors":[
				"BALL_YELLOW",
				"BALL_PURPLE",
				"PLAYER_COLOR"
			],
			"amount":3
		},
		{
			"time":8.2,
			"offset":"RANDOM",

			"colors":[
				"BALL_YELLOW"
			],
			"autoMove":true,
			"amount":1,
			"velocity":200
		},
		{
			"time":8.9,
			"offset": "DEFAULT",

			"colors":[
				"BALL_YELLOW",
				"BALL_PURPLE",
				"PLAYER_COLOR"
			],
			"amount":3
		},
		{
			"time":9.55,
			"offset": "DEFAULT",

			"colors":[
				"BALL_YELLOW",
				"BALL_PURPLE",
				"PLAYER_COLOR"
			],
			"amount":3
		},
		{
			"time":10.2,
			"offset": "DEFAULT",

			"colors":[
				"BALL_YELLOW",
				"BALL_PURPLE",
				"PLAYER_COLOR"
			],
			"amount":3
		},
		{
			"time":10.9,
			"isLedge":true,
			"frame":"ledge"
		}
	],
	"roadRandom":[
		{
			"startTime": 11.2,
			"endTime": 31.3,
			"distanceBall": 0.67,
			"distanceLedge": 3.35,
			"colors":[
				"PLAYER_COLOR"
			]
		}, {
			"startTime": 32.24,
			"endTime": 96,
			"distanceBall": 0.67,
			"distanceLedge": 3.35
		}, {
			"startTime": 97.2,
			"endTime": 100.2,
			"distanceBall": 0.3,
			"distanceLedge": 1.5,
			"colors":[
				"RANDOM",
				"PLAYER_COLOR"
			]
		}, {
			"startTime": 100.5,
			"endTime": 106.5,
			"distanceBall": 0.3,
			"distanceLedge": 1.5,
			"type": "",
			"colors":[
				"PLAYER_COLOR",
				"RANDOM"
			]
		}, {
			"startTime": 106.8,
			"distanceBall": 0.3,
			"distanceLedge": 1.5,
			"colors":[
				"PLAYER_COLOR",
				"RANDOM",
				"RANDOM"
			]
		}
	]
}
